('C:\\Users\\Admin\\Desktop\\AMIFD\\Code\\filepathForwardSlash\\build\\fpfs\\out00-PKG.pkg',
 {'BINARY': 1,
  'DATA': 1,
  'EXECUTABLE': 1,
  'EXTENSION': 1,
  'PYMODULE': 1,
  'PYSOURCE': 1,
  'PYZ': 0},
 [('out00-PYZ.pyz',
   'C:\\Users\\Admin\\Desktop\\AMIFD\\Code\\filepathForwardSlash\\build\\fpfs\\out00-PYZ.pyz',
   'PYZ'),
  ('struct', 'c:\\users\\admin\\anaconda3\\lib\\struct.pyo', 'PYMODULE'),
  ('pyimod01_os_path',
   'c:\\users\\admin\\anaconda3\\lib\\site-packages\\PyInstaller\\loader\\pyimod01_os_path.pyc',
   'PYMODULE'),
  ('pyimod02_archive',
   'c:\\users\\admin\\anaconda3\\lib\\site-packages\\PyInstaller\\loader\\pyimod02_archive.pyc',
   'PYMODULE'),
  ('pyimod03_importers',
   'c:\\users\\admin\\anaconda3\\lib\\site-packages\\PyInstaller\\loader\\pyimod03_importers.pyc',
   'PYMODULE'),
  ('pyiboot01_bootstrap',
   'c:\\users\\admin\\anaconda3\\lib\\site-packages\\PyInstaller\\loader\\pyiboot01_bootstrap.py',
   'PYSOURCE'),
  ('pyi_rth_qt4plugins',
   'c:\\users\\admin\\anaconda3\\lib\\site-packages\\PyInstaller\\loader\\rthooks\\pyi_rth_qt4plugins.py',
   'PYSOURCE'),
  ('fpfs',
   'C:\\Users\\Admin\\Desktop\\AMIFD\\Code\\filepathForwardSlash\\fpfs.py',
   'PYSOURCE'),
  ('api-ms-win-crt-heap-l1-1-0.dll',
   'c:\\users\\admin\\anaconda3\\api-ms-win-crt-heap-l1-1-0.dll',
   'BINARY'),
  ('api-ms-win-crt-math-l1-1-0.dll',
   'c:\\users\\admin\\anaconda3\\api-ms-win-crt-math-l1-1-0.dll',
   'BINARY'),
  ('python35.dll', 'c:\\users\\admin\\anaconda3\\python35.dll', 'BINARY'),
  ('api-ms-win-crt-runtime-l1-1-0.dll',
   'c:\\users\\admin\\anaconda3\\api-ms-win-crt-runtime-l1-1-0.dll',
   'BINARY'),
  ('VCRUNTIME140.dll',
   'c:\\users\\admin\\anaconda3\\VCRUNTIME140.dll',
   'BINARY'),
  ('api-ms-win-crt-locale-l1-1-0.dll',
   'c:\\users\\admin\\anaconda3\\api-ms-win-crt-locale-l1-1-0.dll',
   'BINARY'),
  ('api-ms-win-crt-stdio-l1-1-0.dll',
   'c:\\users\\admin\\anaconda3\\api-ms-win-crt-stdio-l1-1-0.dll',
   'BINARY'),
  ('api-ms-win-crt-conio-l1-1-0.dll',
   'c:\\users\\admin\\anaconda3\\api-ms-win-crt-conio-l1-1-0.dll',
   'BINARY'),
  ('api-ms-win-crt-process-l1-1-0.dll',
   'c:\\users\\admin\\anaconda3\\api-ms-win-crt-process-l1-1-0.dll',
   'BINARY'),
  ('api-ms-win-crt-string-l1-1-0.dll',
   'c:\\users\\admin\\anaconda3\\api-ms-win-crt-string-l1-1-0.dll',
   'BINARY'),
  ('api-ms-win-crt-time-l1-1-0.dll',
   'c:\\users\\admin\\anaconda3\\api-ms-win-crt-time-l1-1-0.dll',
   'BINARY'),
  ('api-ms-win-crt-convert-l1-1-0.dll',
   'c:\\users\\admin\\anaconda3\\api-ms-win-crt-convert-l1-1-0.dll',
   'BINARY'),
  ('api-ms-win-crt-filesystem-l1-1-0.dll',
   'c:\\users\\admin\\anaconda3\\api-ms-win-crt-filesystem-l1-1-0.dll',
   'BINARY'),
  ('api-ms-win-crt-environment-l1-1-0.dll',
   'c:\\users\\admin\\anaconda3\\api-ms-win-crt-environment-l1-1-0.dll',
   'BINARY'),
  ('qt4_plugins\\accessible\\qtaccessiblewidgets4.dll',
   'C:\\Users\\Admin\\Anaconda3\\Library\\plugins\\accessible\\qtaccessiblewidgets4.dll',
   'BINARY'),
  ('qt4_plugins\\imageformats\\qtga4.dll',
   'C:\\Users\\Admin\\Anaconda3\\Library\\plugins\\imageformats\\qtga4.dll',
   'BINARY'),
  ('qt4_plugins\\graphicssystems\\qglgraphicssystem4.dll',
   'C:\\Users\\Admin\\Anaconda3\\Library\\plugins\\graphicssystems\\qglgraphicssystem4.dll',
   'BINARY'),
  ('qt4_plugins\\codecs\\qkrcodecs4.dll',
   'C:\\Users\\Admin\\Anaconda3\\Library\\plugins\\codecs\\qkrcodecs4.dll',
   'BINARY'),
  ('qt4_plugins\\imageformats\\qsvg4.dll',
   'C:\\Users\\Admin\\Anaconda3\\Library\\plugins\\imageformats\\qsvg4.dll',
   'BINARY'),
  ('qt4_plugins\\imageformats\\qtiff4.dll',
   'C:\\Users\\Admin\\Anaconda3\\Library\\plugins\\imageformats\\qtiff4.dll',
   'BINARY'),
  ('qt4_plugins\\codecs\\qjpcodecs4.dll',
   'C:\\Users\\Admin\\Anaconda3\\Library\\plugins\\codecs\\qjpcodecs4.dll',
   'BINARY'),
  ('qt4_plugins\\imageformats\\qmng4.dll',
   'C:\\Users\\Admin\\Anaconda3\\Library\\plugins\\imageformats\\qmng4.dll',
   'BINARY'),
  ('qt4_plugins\\imageformats\\qjpeg4.dll',
   'C:\\Users\\Admin\\Anaconda3\\Library\\plugins\\imageformats\\qjpeg4.dll',
   'BINARY'),
  ('qt4_plugins\\imageformats\\qgif4.dll',
   'C:\\Users\\Admin\\Anaconda3\\Library\\plugins\\imageformats\\qgif4.dll',
   'BINARY'),
  ('qt4_plugins\\codecs\\qtwcodecs4.dll',
   'C:\\Users\\Admin\\Anaconda3\\Library\\plugins\\codecs\\qtwcodecs4.dll',
   'BINARY'),
  ('qt4_plugins\\iconengines\\qsvgicon4.dll',
   'C:\\Users\\Admin\\Anaconda3\\Library\\plugins\\iconengines\\qsvgicon4.dll',
   'BINARY'),
  ('qt4_plugins\\codecs\\qcncodecs4.dll',
   'C:\\Users\\Admin\\Anaconda3\\Library\\plugins\\codecs\\qcncodecs4.dll',
   'BINARY'),
  ('qt4_plugins\\graphicssystems\\qtracegraphicssystem4.dll',
   'C:\\Users\\Admin\\Anaconda3\\Library\\plugins\\graphicssystems\\qtracegraphicssystem4.dll',
   'BINARY'),
  ('qt4_plugins\\imageformats\\qico4.dll',
   'C:\\Users\\Admin\\Anaconda3\\Library\\plugins\\imageformats\\qico4.dll',
   'BINARY'),
  ('PyQt4.QtCore',
   'c:\\users\\admin\\anaconda3\\lib\\site-packages\\PyQt4\\QtCore.pyd',
   'EXTENSION'),
  ('sip',
   'c:\\users\\admin\\anaconda3\\lib\\site-packages\\sip.pyd',
   'EXTENSION'),
  ('_ssl', 'c:\\users\\admin\\anaconda3\\DLLs\\_ssl.pyd', 'EXTENSION'),
  ('unicodedata',
   'c:\\users\\admin\\anaconda3\\DLLs\\unicodedata.pyd',
   'EXTENSION'),
  ('win32api',
   'c:\\users\\admin\\anaconda3\\lib\\site-packages\\win32\\win32api.pyd',
   'EXTENSION'),
  ('win32evtlog',
   'c:\\users\\admin\\anaconda3\\lib\\site-packages\\win32\\win32evtlog.pyd',
   'EXTENSION'),
  ('_ctypes', 'c:\\users\\admin\\anaconda3\\DLLs\\_ctypes.pyd', 'EXTENSION'),
  ('pyexpat', 'c:\\users\\admin\\anaconda3\\DLLs\\pyexpat.pyd', 'EXTENSION'),
  ('_hashlib', 'c:\\users\\admin\\anaconda3\\DLLs\\_hashlib.pyd', 'EXTENSION'),
  ('select', 'c:\\users\\admin\\anaconda3\\DLLs\\select.pyd', 'EXTENSION'),
  ('_bz2', 'c:\\users\\admin\\anaconda3\\DLLs\\_bz2.pyd', 'EXTENSION'),
  ('_lzma', 'c:\\users\\admin\\anaconda3\\DLLs\\_lzma.pyd', 'EXTENSION'),
  ('_socket', 'c:\\users\\admin\\anaconda3\\DLLs\\_socket.pyd', 'EXTENSION'),
  ('PyQt4.QtGui',
   'c:\\users\\admin\\anaconda3\\lib\\site-packages\\PyQt4\\QtGui.pyd',
   'EXTENSION'),
  ('QtCore4.dll',
   'c:\\users\\admin\\anaconda3\\Library\\bin\\qtcore4.dll',
   'BINARY'),
  ('QtGui4.dll',
   'c:\\users\\admin\\anaconda3\\Library\\bin\\qtgui4.dll',
   'BINARY'),
  ('QtOpenGL4.dll',
   'c:\\users\\admin\\anaconda3\\Library\\bin\\qtopengl4.dll',
   'BINARY'),
  ('QtSvg4.dll',
   'c:\\users\\admin\\anaconda3\\Library\\bin\\qtsvg4.dll',
   'BINARY'),
  ('QtXml4.dll',
   'c:\\users\\admin\\anaconda3\\Library\\bin\\qtxml4.dll',
   'BINARY'),
  ('api-ms-win-crt-utility-l1-1-0.dll',
   'c:\\users\\admin\\anaconda3\\api-ms-win-crt-utility-l1-1-0.dll',
   'BINARY'),
  ('zlib.dll', 'c:\\users\\admin\\anaconda3\\Library\\bin\\zlib.dll', 'BINARY'),
  ('pywintypes35.dll',
   'c:\\users\\admin\\anaconda3\\Library\\bin\\pywintypes35.dll',
   'BINARY'),
  ('MSVCP140.dll',
   'c:\\users\\admin\\anaconda3\\Library\\bin\\MSVCP140.dll',
   'BINARY'),
  ('libpng16.dll',
   'c:\\users\\admin\\anaconda3\\Library\\bin\\libpng16.dll',
   'BINARY'),
  ('api-ms-win-crt-multibyte-l1-1-0.dll',
   'c:\\users\\admin\\anaconda3\\Library\\bin\\api-ms-win-crt-multibyte-l1-1-0.dll',
   'BINARY'),
  ('base_library.zip',
   'C:\\Users\\Admin\\Desktop\\AMIFD\\Code\\filepathForwardSlash\\build\\fpfs\\base_library.zip',
   'DATA'),
  ('fpfs.exe.manifest',
   'C:\\Users\\Admin\\Desktop\\AMIFD\\Code\\filepathForwardSlash\\build\\fpfs\\fpfs.exe.manifest',
   'BINARY'),
  ('pyi-windows-manifest-filename fpfs.exe.manifest', '', 'OPTION')],
 False,
 False,
 False)
